[
  {
    "business-type": "Automotive"
  },
  {
    "business-type": "Boats & Marine"
  },
  {
    "business-type": "Building & Maintenance"
  },
  {
    "business-type": "Business & Professional Services"
  },
  {
    "business-type": "Clothing & Fabric"
  },
  {
    "business-type": "Community & Government"
  }
]