[
  {
    "value": "River Rafting"
  },
  {
    "value": "Pizza"
  },
  {
    "value": "Photographer"
  },
  {
    "value": "Idli sambher"
  },
  {
    "value": "Bookeys"
  },
  {
    "value": "Food & restaurant"
  },
  {
    "value": "Coffee"
  },
  {
    "value": "Computers & Technology"
  },
  {
    "value": "Education & Training"
  },
  {
    "value": "Entertainment & Leisure"
  },
  {
    "value": "River Rafting"
  },
  {
    "value": "Pizza"
  },
  {
    "value": "Photographer"
  },
  {
    "value": "Idli sambher"
  },
  {
    "value": "Bookeys"
  },
  {
    "value": "Food & restaurant"
  },
  {
    "value": "Coffee"
  },
  {
    "value": "Computers & Technology"
  },
  {
    "value": "Education & Training"
  },
  {
    "value": "Entertainment & Leisure"
  }
]